[
    [
        "Aircalibur",
        "Anima",
        2.066734790802002
    ],
    [
        "FireBall",
        "Anima",
        0.5403174757957458
    ],
    [
        "Bolting1",
        "Anima",
        1.2382313013076782
    ],
    [
        "Bolting2",
        "Anima",
        3.684217691421509
    ],
    [
        "ElfireHit",
        "Anima",
        0.8439229130744934
    ],
    [
        "Fimbulvetr1",
        "Anima",
        2.5197958946228027
    ],
    [
        "Fimbulvetr2",
        "Anima",
        0.43936508893966675
    ],
    [
        "FireCharge",
        "Anima",
        0.5696825385093689
    ],
    [
        "FireHit",
        "Anima",
        0.8359637260437012
    ],
    [
        "Forblaze1",
        "Anima",
        3.1739001274108887
    ],
    [
        "Forblaze2",
        "Anima",
        2.216031789779663
    ],
    [
        "Gust",
        "Anima",
        1.0606802701950073
    ],
    [
        "Thunder",
        "Anima",
        1.5868027210235596
    ],
    [
        "Wind",
        "Anima",
        1.8076417446136475
    ],
    [
        "WindWave",
        "Anima",
        0.7325623631477356
    ],
    [
        "Apocalypse1",
        "Dark",
        3.1769161224365234
    ],
    [
        "Apocalypse2",
        "Dark",
        6.384172439575195
    ],
    [
        "Apocalypse3",
        "Dark",
        4.3412017822265625
    ],
    [
        "EckesachsRanged",
        "Dark",
        0.6051474213600159
    ],
    [
        "Eclipse1",
        "Dark",
        2.014852523803711
    ],
    [
        "Eclipse2",
        "Dark",
        2.014852523803711
    ],
    [
        "Eclipse3",
        "Dark",
        1.1017913818359375
    ],
    [
        "Ereshkigal1",
        "Dark",
        3.735623598098755
    ],
    [
        "Ereshkigal2",
        "Dark",
        1.9520634412765503
    ],
    [
        "Fenrir1",
        "Dark",
        3.030566930770874
    ],
    [
        "Fenrir2",
        "Dark",
        2.2569613456726074
    ],
    [
        "Fenrir3",
        "Dark",
        1.3409523963928223
    ],
    [
        "Fenrir4",
        "Dark",
        1.6697052717208862
    ],
    [
        "Flux1",
        "Dark",
        1.7086848020553589
    ],
    [
        "Flux2",
        "Dark",
        1.8892062902450562
    ],
    [
        "Gespenst1",
        "Dark",
        1.6683673858642578
    ],
    [
        "Gespenst2",
        "Dark",
        1.7231745719909668
    ],
    [
        "Gespenst3",
        "Dark",
        0.9091383218765259
    ],
    [
        "Gleipnir",
        "Dark",
        5.522199630737305
    ],
    [
        "GleipnirHit",
        "Dark",
        0.7153061032295227
    ],
    [
        "Luna1",
        "Dark",
        0.8655328750610352
    ],
    [
        "Luna2",
        "Dark",
        3.1949660778045654
    ],
    [
        "Naglfar",
        "Dark",
        6.676802635192871
    ],
    [
        "NaglfarHit",
        "Dark",
        1.8227664232254028
    ],
    [
        "Nosferatu1",
        "Dark",
        0.9275736808776855
    ],
    [
        "Nosferatu2",
        "Dark",
        1.171791434288025
    ],
    [
        "Nosferatu3",
        "Dark",
        1.0220861434936523
    ],
    [
        "Aura1",
        "Light",
        1.4129478931427002
    ],
    [
        "Aura2",
        "Light",
        1.829614520072937
    ],
    [
        "Aura3",
        "Light",
        2.9402947425842285
    ],
    [
        "Aureola1",
        "Light",
        6.052267551422119
    ],
    [
        "Aureola2",
        "Light",
        1.031337857246399
    ],
    [
        "Aureola3",
        "Light",
        2.039433002471924
    ],
    [
        "Divine1",
        "Light",
        1.6207709312438965
    ],
    [
        "Divine2",
        "Light",
        1.106621265411377
    ],
    [
        "Divine3",
        "Light",
        1.7381858825683594
    ],
    [
        "Ivaldi1",
        "Light",
        0.7869160771369934
    ],
    [
        "Ivaldi2",
        "Light",
        6.184807300567627
    ],
    [
        "Lightning1",
        "Light",
        1.4853968620300293
    ],
    [
        "Lightning2",
        "Light",
        1.596825361251831
    ],
    [
        "Luce1",
        "Light",
        0.5542176961898804
    ],
    [
        "Luce2",
        "Light",
        2.0300679206848145
    ],
    [
        "Luce3",
        "Light",
        2.149501085281372
    ],
    [
        "Purge1",
        "Light",
        0.5455555319786072
    ],
    [
        "Purge2",
        "Light",
        0.5576871037483215
    ],
    [
        "Purge3",
        "Light",
        1.1909070014953613
    ],
    [
        "Purge4",
        "Light",
        1.2896825075149536
    ],
    [
        "Shine",
        "Light",
        1.6286168098449707
    ],
    [
        "Map_Step_Armor1",
        "Map_Sounds",
        0.15498866140842438
    ],
    [
        "Map_Step_Armor2",
        "Map_Sounds",
        0.16346938908100128
    ],
    [
        "Map_Step_FDragon",
        "Map_Sounds",
        0.21092970669269562
    ],
    [
        "Map_Step_Flier",
        "Map_Sounds",
        0.22249433398246765
    ],
    [
        "Map_Step_Infantry1",
        "Map_Sounds",
        0.129274383187294
    ],
    [
        "Map_Step_Infantry2",
        "Map_Sounds",
        0.13321995735168457
    ],
    [
        "Map_Step_Mounted1",
        "Map_Sounds",
        0.09984126687049866
    ],
    [
        "Map_Step_Mounted2",
        "Map_Sounds",
        0.16893424093723297
    ],
    [
        "Map_Step_Mounted3",
        "Map_Sounds",
        0.16074830293655396
    ],
    [
        "CrimsonEye",
        "Monster",
        5.863038539886475
    ],
    [
        "DemonLight",
        "Monster",
        6.420317649841309
    ],
    [
        "DemonLightHit",
        "Monster",
        2.77496600151062
    ],
    [
        "DemonSurge",
        "Monster",
        3.133310556411743
    ],
    [
        "EvilEye",
        "Monster",
        3.1230838298797607
    ],
    [
        "Shadowshot",
        "Monster",
        4.564399242401123
    ],
    [
        "ShadowshotHit",
        "Monster",
        1.4517459869384766
    ],
    [
        "Stone",
        "Monster",
        2.319070339202881
    ],
    [
        "StoneHit",
        "Monster",
        2.213764190673828
    ],
    [
        "DebuffRecover",
        "Staff",
        0.8530158996582031
    ],
    [
        "HealBoop",
        "Staff",
        0.33696144819259644
    ],
    [
        "MapHeal",
        "Staff",
        1.7332426309585571
    ],
    [
        "Poison",
        "Staff",
        0.6348752975463867
    ],
    [
        "PureWater",
        "Staff",
        0.7971882224082947
    ],
    [
        "Rally",
        "Staff",
        0.6124262809753418
    ],
    [
        "Torch",
        "Staff",
        1.7137187719345093
    ],
    [
        "Barrier",
        "Staff",
        3.326984167098999
    ],
    [
        "Berserk",
        "Staff",
        1.6823129653930664
    ],
    [
        "Fortify",
        "Staff",
        3.734693765640259
    ],
    [
        "Hammerne",
        "Staff",
        3.127596378326416
    ],
    [
        "Heal1",
        "Staff",
        0.7821542024612427
    ],
    [
        "Heal2",
        "Staff",
        0.7698412537574768
    ],
    [
        "HealInit",
        "Staff",
        0.8589115738868713
    ],
    [
        "Mend",
        "Staff",
        0.8587528467178345
    ],
    [
        "Recover",
        "Staff",
        0.828049898147583
    ],
    [
        "Restore",
        "Staff",
        4.107891082763672
    ],
    [
        "Silence1",
        "Staff",
        1.8528571128845215
    ],
    [
        "Silence2",
        "Staff",
        1.5588208436965942
    ],
    [
        "SilenceCrack",
        "Staff",
        0.8508843779563904
    ],
    [
        "Sleep1",
        "Staff",
        0.9927210807800293
    ],
    [
        "Sleep2",
        "Staff",
        1.3376190662384033
    ],
    [
        "UnlockStaff",
        "Staff",
        2.158503293991089
    ],
    [
        "Warp",
        "Staff",
        2.0629706382751465
    ],
    [
        "WarpEnd",
        "Staff",
        1.175283432006836
    ],
    [
        "Armor Shift",
        null,
        0.3846712112426758
    ],
    [
        "Attack Hit 1",
        "Attack",
        0.3106575906276703
    ],
    [
        "Attack Hit 2",
        "Attack",
        0.28346937894821167
    ],
    [
        "Attack Hit 3",
        "Attack",
        0.3019954562187195
    ],
    [
        "Attack Hit 4",
        null,
        0.2868480682373047
    ],
    [
        "Attack Hit 5",
        null,
        0.2931519150733948
    ],
    [
        "Attack Miss 2",
        null,
        0.23206348717212677
    ],
    [
        "Attack Miss 3",
        null,
        0.47464853525161743
    ],
    [
        "Axe Pull",
        null,
        0.20351473987102509
    ],
    [
        "Axe Push",
        null,
        0.10111111402511597
    ],
    [
        "Battle Cry",
        null,
        2.0
    ],
    [
        "BindingBladeRanged",
        null,
        1.2324943542480469
    ],
    [
        "Bow Miss",
        null,
        0.49761903285980225
    ],
    [
        "Bow",
        null,
        0.4627891182899475
    ],
    [
        "BrightFlash",
        null,
        2.524625778198242
    ],
    [
        "CombatDeath",
        null,
        0.7165079116821289
    ],
    [
        "Critical Hit 1",
        null,
        0.7950113415718079
    ],
    [
        "Critical Hit 2",
        null,
        0.7742403745651245
    ],
    [
        "Critical Kill",
        null,
        0.7602267861366272
    ],
    [
        "CritInit",
        null,
        0.3780725598335266
    ],
    [
        "CyclopsCrit",
        null,
        0.6090022921562195
    ],
    [
        "Dance1",
        null,
        3.2123355865478516
    ],
    [
        "Dance2",
        null,
        1.3644897937774658
    ],
    [
        "Death",
        null,
        0.7106575965881348
    ],
    [
        "DruidCrit",
        null,
        1.2984126806259155
    ],
    [
        "Error",
        null,
        1.098095178604126
    ],
    [
        "Experience Gain Old",
        null,
        1.2279818058013916
    ],
    [
        "Experience Gain",
        null,
        0.033877551555633545
    ],
    [
        "Final Hit",
        null,
        0.466802716255188
    ],
    [
        "First Stat Up",
        null,
        0.6790022850036621
    ],
    [
        "Foot Step",
        null,
        0.12290249764919281
    ],
    [
        "FormationSelect",
        null,
        1.7993197441101074
    ],
    [
        "General Step",
        null,
        0.9944217801094055
    ],
    [
        "GoldExchange",
        null,
        1.3758050203323364
    ],
    [
        "Heavy Foot Steps 1",
        null,
        0.5281178951263428
    ],
    [
        "Heavy Spear Spin",
        null,
        0.28267574310302734
    ],
    [
        "Heavy Wing Flap",
        null,
        0.33473923802375793
    ],
    [
        "Horse Step 1",
        null,
        0.34839001297950745
    ],
    [
        "Horse Step 2",
        null,
        0.24943310022354126
    ],
    [
        "Horse Step 3",
        null,
        0.2448979616165161
    ],
    [
        "Horse Steps",
        null,
        0.3088662028312683
    ],
    [
        "HP_Recovery",
        null,
        0.4151020348072052
    ],
    [
        "Info In",
        null,
        1.3517913818359375
    ],
    [
        "Info Out",
        null,
        1.2451927661895752
    ],
    [
        "Intro",
        null,
        8.076598167419434
    ],
    [
        "Item",
        null,
        1.435011386871338
    ],
    [
        "ItemBreak",
        null,
        1.7866439819335938
    ],
    [
        "Knight Step",
        null,
        0.3796825408935547
    ],
    [
        "Legendary Weapon",
        null,
        0.5280952453613281
    ],
    [
        "Level Up",
        null,
        1.481383204460144
    ],
    [
        "Level_Up_Level",
        null,
        0.7840816378593445
    ],
    [
        "Light Foot Steps 1",
        null,
        0.27437642216682434
    ],
    [
        "Long Wing Flap",
        null,
        0.45319727063179016
    ],
    [
        "Map In",
        null,
        1.1662812232971191
    ],
    [
        "Map Out",
        null,
        1.2522449493408203
    ],
    [
        "Message",
        null,
        0.3101133704185486
    ],
    [
        "Miss",
        null,
        0.18394558131694794
    ],
    [
        "MonkRune",
        null,
        0.5377777814865112
    ],
    [
        "Neigh",
        null,
        2.026825428009033
    ],
    [
        "Next Turn",
        null,
        1.348231315612793
    ],
    [
        "No Damage",
        null,
        0.3870294690132141
    ],
    [
        "Promotion1",
        null,
        1.522040843963623
    ],
    [
        "Promotion2",
        null,
        1.1307482719421387
    ],
    [
        "Promotion3",
        null,
        2.075510263442993
    ],
    [
        "PromotionCrackle",
        null,
        0.27673467993736267
    ],
    [
        "Quintessence",
        null,
        1.5202040672302246
    ],
    [
        "RefreshDance",
        null,
        4.1049885749816895
    ],
    [
        "RefreshDanceMap",
        null,
        1.6605215072631836
    ],
    [
        "RefreshFlute",
        null,
        3.3759636878967285
    ],
    [
        "RefreshFluteMap",
        null,
        1.7704308032989502
    ],
    [
        "SageCrit",
        null,
        1.6719274520874023
    ],
    [
        "SageRune",
        null,
        0.5895237922668457
    ],
    [
        "Save",
        null,
        1.4478003978729248
    ],
    [
        "Select 1",
        null,
        0.17789115011692047
    ],
    [
        "Select 2",
        null,
        0.17462584376335144
    ],
    [
        "Select 3",
        null,
        0.28988662362098694
    ],
    [
        "Select 4",
        null,
        0.36233559250831604
    ],
    [
        "Select 5",
        null,
        0.13310657441616058
    ],
    [
        "Select 6",
        null,
        0.09612245112657547
    ],
    [
        "ShamanRune",
        null,
        2.491405963897705
    ],
    [
        "Sheathe",
        null,
        0.20040816068649292
    ],
    [
        "SkillActivate",
        null,
        0.5431746244430542
    ],
    [
        "StageClear",
        null,
        3.8933334350585938
    ],
    [
        "Start",
        null,
        1.6913378238677979
    ],
    [
        "Stat Up",
        null,
        0.3570067882537842
    ],
    [
        "Status_Character",
        null,
        0.322857141494751
    ],
    [
        "Status_Page_Change",
        null,
        0.9888208508491516
    ],
    [
        "Step Back 1",
        null,
        0.17818593978881836
    ],
    [
        "StrategistRune",
        null,
        0.6863038539886475
    ],
    [
        "Summon 2",
        null,
        1.2301586866378784
    ],
    [
        "Summon",
        null,
        1.2493196725845337
    ],
    [
        "Sword Whoosh",
        null,
        0.2580045461654663
    ],
    [
        "Throw 1",
        null,
        0.790975034236908
    ],
    [
        "Throw 2",
        null,
        0.20648525655269623
    ],
    [
        "Throw 3",
        null,
        0.8196825385093689
    ],
    [
        "TradeRight",
        null,
        0.6822448968887329
    ],
    [
        "TurnwheelIn1",
        null,
        0.7044217586517334
    ],
    [
        "TurnwheelIn2",
        null,
        1.071587324142456
    ],
    [
        "TurnwheelOut",
        null,
        2.158095121383667
    ],
    [
        "TurnwheelTurn",
        null,
        1.98285710811615
    ],
    [
        "Unlock",
        null,
        0.2568480670452118
    ],
    [
        "Unsheathe",
        null,
        0.23160997033119202
    ],
    [
        "ValkyrieCharge",
        null,
        1.6838548183441162
    ],
    [
        "VillageDestroyed",
        null,
        0.6705895662307739
    ],
    [
        "Wall Attack",
        null,
        0.4811791479587555
    ],
    [
        "Weapon Click",
        null,
        0.7397732138633728
    ],
    [
        "Weapon Pull",
        null,
        0.19541950523853302
    ],
    [
        "Weapon Push",
        null,
        0.19900226593017578
    ],
    [
        "Weapon Shine",
        null,
        0.7988208532333374
    ],
    [
        "Weapon Swing",
        null,
        0.790975034236908
    ],
    [
        "Whistle",
        "Fluf",
        0.7024036049842834
    ],
    [
        "Talk_Boop",
        null,
        0.03256235644221306
    ]
]